^C:\USERS\IVAN\DESKTOP\SHADOWMAPPINGNEW\SHADOWMAPPING\RELEASE\ENGINE\ENGINE.LIB|C:\USERS\IVAN\DESKTOP\SHADOWMAPPINGNEW\SHADOWMAPPING\VANITY EXAMPLE APP\RELEASE\PCH.OBJ|C:\USERS\IVAN\DESKTOP\SHADOWMAPPINGNEW\SHADOWMAPPING\VANITY EXAMPLE APP\RELEASE\PROGRAM.OBJ|C:\USERS\IVAN\DESKTOP\SHADOWMAPPINGNEW\SHADOWMAPPING\VANITY EXAMPLE APP\RELEASE\RENDERER3D.OBJ|C:\USERS\IVAN\DESKTOP\SHADOWMAPPINGNEW\SHADOWMAPPING\VANITY EXAMPLE APP\RELEASE\RENDERTOTEXTURE.OBJ
C:\USERS\IVAN\DESKTOP\SHADOWMAPPINGNEW\SHADOWMAPPING\RELEASE\VANITY EXAMPLE APP\VANITY EXAMPLE APP.EXE
C:\USERS\IVAN\DESKTOP\SHADOWMAPPINGNEW\SHADOWMAPPING\RELEASE\VANITY EXAMPLE APP\VANITY_EXAMPLE_APP.WINMD
C:\USERS\IVAN\DESKTOP\SHADOWMAPPINGNEW\SHADOWMAPPING\RELEASE\VANITY EXAMPLE APP\VANITY EXAMPLE APP.PDB
