^C:\USERS\IVAN\DESKTOP\SHADOWMAPPINGNEW\SHADOWMAPPING\ENGINE\PCH.CPP
C:\PROGRAM FILES (X86)\MICROSOFT VISUAL STUDIO 12.0\VC\BIN\1033\CLUI.DLL
C:\WINDOWS\GLOBALIZATION\SORTING\SORTDEFAULT.NLS
C:\WINDOWS\SYSTEM32\TZRES.DLL
C:\WINDOWS\MICROSOFT.NET\FRAMEWORK\V2.0.50727\MSCORWKS.DLL
C:\WINDOWS\MICROSOFT.NET\FRAMEWORK\V4.0.30319\CLR.DLL
C:\PROGRAM FILES (X86)\MICROSOFT VISUAL STUDIO 12.0\VC\BIN\CL.EXE.CONFIG
C:\PROGRAM FILES (X86)\MICROSOFT SDKS\WINDOWS\V8.1\EXTENSIONSDKS\MICROSOFT.VCLIBS\12.0\REFERENCES\COMMONCONFIGURATION\NEUTRAL\PLATFORM.WINMD
C:\PROGRAM FILES (X86)\WINDOWS KITS\8.1\REFERENCES\COMMONCONFIGURATION\NEUTRAL\WINDOWS.WINMD
C:\PROGRAM FILES (X86)\MICROSOFT VISUAL STUDIO 12.0\VC\INCLUDE\VCCORLIB.H
C:\USERS\IVAN\DESKTOP\SHADOWMAPPINGNEW\SHADOWMAPPING\ENGINE\PCH.H
C:\USERS\IVAN\DESKTOP\SHADOWMAPPINGNEW\SHADOWMAPPING\ENGINE\TARGETVER.H
C:\PROGRAM FILES (X86)\WINDOWS KITS\8.1\INCLUDE\SHARED\SDKDDKVER.H
C:\PROGRAM FILES (X86)\WINDOWS KITS\8.1\INCLUDE\UM\WINDOWS.H
C:\PROGRAM FILES (X86)\WINDOWS KITS\8.1\INCLUDE\SHARED\WINAPIFAMILY.H
C:\PROGRAM FILES (X86)\MICROSOFT VISUAL STUDIO 12.0\VC\INCLUDE\EXCPT.H
C:\PROGRAM FILES (X86)\MICROSOFT VISUAL STUDIO 12.0\VC\INCLUDE\CRTDEFS.H
C:\PROGRAM FILES (X86)\MICROSOFT VISUAL STUDIO 12.0\VC\INCLUDE\SAL.H
C:\PROGRAM FILES (X86)\MICROSOFT VISUAL STUDIO 12.0\VC\INCLUDE\CONCURRENCYSAL.H
C:\PROGRAM FILES (X86)\MICROSOFT VISUAL STUDIO 12.0\VC\INCLUDE\VADEFS.H
C:\PROGRAM FILES (X86)\MICROSOFT VISUAL STUDIO 12.0\VC\INCLUDE\STDARG.H
C:\PROGRAM FILES (X86)\WINDOWS KITS\8.1\INCLUDE\SHARED\WINDEF.H
C:\PROGRAM FILES (X86)\WINDOWS KITS\8.1\INCLUDE\SHARED\MINWINDEF.H
C:\PROGRAM FILES (X86)\WINDOWS KITS\8.1\INCLUDE\SHARED\SPECSTRINGS.H
C:\PROGRAM FILES (X86)\WINDOWS KITS\8.1\INCLUDE\SHARED\SPECSTRINGS_STRICT.H
C:\PROGRAM FILES (X86)\WINDOWS KITS\8.1\INCLUDE\SHARED\SPECSTRINGS_UNDEF.H
C:\PROGRAM FILES (X86)\WINDOWS KITS\8.1\INCLUDE\SHARED\DRIVERSPECS.H
C:\PROGRAM FILES (X86)\WINDOWS KITS\8.1\INCLUDE\SHARED\SDV_DRIVERSPECS.H
C:\PROGRAM FILES (X86)\WINDOWS KITS\8.1\INCLUDE\UM\WINNT.H
C:\PROGRAM FILES (X86)\MICROSOFT VISUAL STUDIO 12.0\VC\INCLUDE\CTYPE.H
C:\PROGRAM FILES (X86)\WINDOWS KITS\8.1\INCLUDE\SHARED\KERNELSPECS.H
C:\PROGRAM FILES (X86)\WINDOWS KITS\8.1\INCLUDE\SHARED\BASETSD.H
C:\PROGRAM FILES (X86)\WINDOWS KITS\8.1\INCLUDE\SHARED\GUIDDEF.H
C:\PROGRAM FILES (X86)\MICROSOFT VISUAL STUDIO 12.0\VC\INCLUDE\STRING.H
C:\PROGRAM FILES (X86)\WINDOWS KITS\8.1\INCLUDE\SHARED\PSHPACK4.H
C:\PROGRAM FILES (X86)\WINDOWS KITS\8.1\INCLUDE\SHARED\POPPACK.H
C:\PROGRAM FILES (X86)\WINDOWS KITS\8.1\INCLUDE\SHARED\PSHPACK2.H
C:\PROGRAM FILES (X86)\WINDOWS KITS\8.1\INCLUDE\SHARED\PSHPACK8.H
C:\PROGRAM FILES (X86)\WINDOWS KITS\8.1\INCLUDE\SHARED\APISET.H
C:\PROGRAM FILES (X86)\WINDOWS KITS\8.1\INCLUDE\SHARED\KTMTYPES.H
C:\PROGRAM FILES (X86)\WINDOWS KITS\8.1\INCLUDE\UM\WINBASE.H
C:\PROGRAM FILES (X86)\WINDOWS KITS\8.1\INCLUDE\SHARED\APISETCCONV.H
C:\PROGRAM FILES (X86)\WINDOWS KITS\8.1\INCLUDE\UM\MINWINBASE.H
C:\PROGRAM FILES (X86)\WINDOWS KITS\8.1\INCLUDE\UM\PROCESSENV.H
C:\PROGRAM FILES (X86)\WINDOWS KITS\8.1\INCLUDE\UM\FILEAPI.H
C:\PROGRAM FILES (X86)\WINDOWS KITS\8.1\INCLUDE\UM\DEBUGAPI.H
C:\PROGRAM FILES (X86)\WINDOWS KITS\8.1\INCLUDE\UM\UTILAPISET.H
C:\PROGRAM FILES (X86)\WINDOWS KITS\8.1\INCLUDE\UM\HANDLEAPI.H
C:\PROGRAM FILES (X86)\WINDOWS KITS\8.1\INCLUDE\UM\ERRHANDLINGAPI.H
C:\PROGRAM FILES (X86)\WINDOWS KITS\8.1\INCLUDE\UM\FIBERSAPI.H
C:\PROGRAM FILES (X86)\WINDOWS KITS\8.1\INCLUDE\UM\NAMEDPIPEAPI.H
C:\PROGRAM FILES (X86)\WINDOWS KITS\8.1\INCLUDE\UM\PROFILEAPI.H
C:\PROGRAM FILES (X86)\WINDOWS KITS\8.1\INCLUDE\UM\HEAPAPI.H
C:\PROGRAM FILES (X86)\WINDOWS KITS\8.1\INCLUDE\UM\IOAPISET.H
C:\PROGRAM FILES (X86)\WINDOWS KITS\8.1\INCLUDE\UM\SYNCHAPI.H
C:\PROGRAM FILES (X86)\WINDOWS KITS\8.1\INCLUDE\UM\INTERLOCKEDAPI.H
C:\PROGRAM FILES (X86)\WINDOWS KITS\8.1\INCLUDE\UM\PROCESSTHREADSAPI.H
C:\PROGRAM FILES (X86)\WINDOWS KITS\8.1\INCLUDE\UM\SYSINFOAPI.H
C:\PROGRAM FILES (X86)\WINDOWS KITS\8.1\INCLUDE\UM\MEMORYAPI.H
C:\PROGRAM FILES (X86)\WINDOWS KITS\8.1\INCLUDE\UM\THREADPOOLLEGACYAPISET.H
C:\PROGRAM FILES (X86)\WINDOWS KITS\8.1\INCLUDE\UM\THREADPOOLAPISET.H
C:\PROGRAM FILES (X86)\WINDOWS KITS\8.1\INCLUDE\UM\BEMAPISET.H
C:\PROGRAM FILES (X86)\WINDOWS KITS\8.1\INCLUDE\UM\JOBAPI.H
C:\PROGRAM FILES (X86)\WINDOWS KITS\8.1\INCLUDE\UM\WOW64APISET.H
C:\PROGRAM FILES (X86)\WINDOWS KITS\8.1\INCLUDE\UM\LIBLOADERAPI.H
C:\PROGRAM FILES (X86)\WINDOWS KITS\8.1\INCLUDE\UM\SECURITYBASEAPI.H
C:\PROGRAM FILES (X86)\WINDOWS KITS\8.1\INCLUDE\UM\NAMESPACEAPI.H
C:\PROGRAM FILES (X86)\WINDOWS KITS\8.1\INCLUDE\UM\SYSTEMTOPOLOGYAPI.H
C:\PROGRAM FILES (X86)\WINDOWS KITS\8.1\INCLUDE\UM\PROCESSTOPOLOGYAPI.H
C:\PROGRAM FILES (X86)\WINDOWS KITS\8.1\INCLUDE\UM\SECURITYAPPCONTAINER.H
C:\PROGRAM FILES (X86)\WINDOWS KITS\8.1\INCLUDE\UM\REALTIMEAPISET.H
C:\PROGRAM FILES (X86)\WINDOWS KITS\8.1\INCLUDE\SHARED\WINERROR.H
C:\PROGRAM FILES (X86)\WINDOWS KITS\8.1\INCLUDE\UM\TIMEZONEAPI.H
C:\PROGRAM FILES (X86)\WINDOWS KITS\8.1\INCLUDE\UM\WINGDI.H
C:\PROGRAM FILES (X86)\WINDOWS KITS\8.1\INCLUDE\SHARED\PSHPACK1.H
C:\PROGRAM FILES (X86)\WINDOWS KITS\8.1\INCLUDE\UM\WINUSER.H
C:\PROGRAM FILES (X86)\WINDOWS KITS\8.1\INCLUDE\SHARED\TVOUT.H
C:\PROGRAM FILES (X86)\WINDOWS KITS\8.1\INCLUDE\UM\WINNLS.H
C:\PROGRAM FILES (X86)\WINDOWS KITS\8.1\INCLUDE\UM\DATETIMEAPI.H
C:\PROGRAM FILES (X86)\WINDOWS KITS\8.1\INCLUDE\UM\STRINGAPISET.H
C:\PROGRAM FILES (X86)\WINDOWS KITS\8.1\INCLUDE\UM\WINCON.H
C:\PROGRAM FILES (X86)\WINDOWS KITS\8.1\INCLUDE\UM\CONSOLEAPI.H
C:\PROGRAM FILES (X86)\WINDOWS KITS\8.1\INCLUDE\UM\WINVER.H
C:\PROGRAM FILES (X86)\WINDOWS KITS\8.1\INCLUDE\UM\VERRSRC.H
C:\PROGRAM FILES (X86)\WINDOWS KITS\8.1\INCLUDE\UM\WINREG.H
C:\PROGRAM FILES (X86)\WINDOWS KITS\8.1\INCLUDE\UM\WINNETWK.H
C:\PROGRAM FILES (X86)\WINDOWS KITS\8.1\INCLUDE\SHARED\STRALIGN.H
C:\PROGRAM FILES (X86)\WINDOWS KITS\8.1\INCLUDE\UM\WINSVC.H
C:\PROGRAM FILES (X86)\WINDOWS KITS\8.1\INCLUDE\UM\MCX.H
C:\PROGRAM FILES (X86)\WINDOWS KITS\8.1\INCLUDE\UM\IMM.H
C:\PROGRAM FILES (X86)\WINDOWS KITS\8.1\INCLUDE\UM\IME_CMODES.H
C:\PROGRAM FILES (X86)\WINDOWS KITS\8.1\INCLUDE\WINRT\WRL.H
C:\PROGRAM FILES (X86)\WINDOWS KITS\8.1\INCLUDE\WINRT\WRL\CLIENT.H
C:\PROGRAM FILES (X86)\MICROSOFT VISUAL STUDIO 12.0\VC\INCLUDE\STDDEF.H
C:\PROGRAM FILES (X86)\WINDOWS KITS\8.1\INCLUDE\UM\UNKNWN.H
C:\PROGRAM FILES (X86)\WINDOWS KITS\8.1\INCLUDE\SHARED\RPC.H
C:\PROGRAM FILES (X86)\WINDOWS KITS\8.1\INCLUDE\SHARED\RPCDCE.H
C:\PROGRAM FILES (X86)\WINDOWS KITS\8.1\INCLUDE\SHARED\RPCDCEP.H
C:\PROGRAM FILES (X86)\WINDOWS KITS\8.1\INCLUDE\UM\RPCNSI.H
C:\PROGRAM FILES (X86)\WINDOWS KITS\8.1\INCLUDE\SHARED\RPCNTERR.H
C:\PROGRAM FILES (X86)\WINDOWS KITS\8.1\INCLUDE\SHARED\RPCASYNC.H
C:\PROGRAM FILES (X86)\WINDOWS KITS\8.1\INCLUDE\SHARED\RPCNDR.H
C:\PROGRAM FILES (X86)\WINDOWS KITS\8.1\INCLUDE\UM\RPCNSIP.H
C:\PROGRAM FILES (X86)\WINDOWS KITS\8.1\INCLUDE\SHARED\RPCSAL.H
C:\PROGRAM FILES (X86)\WINDOWS KITS\8.1\INCLUDE\UM\OLE2.H
C:\PROGRAM FILES (X86)\WINDOWS KITS\8.1\INCLUDE\UM\OBJBASE.H
C:\PROGRAM FILES (X86)\WINDOWS KITS\8.1\INCLUDE\UM\COMBASEAPI.H
C:\PROGRAM FILES (X86)\MICROSOFT VISUAL STUDIO 12.0\VC\INCLUDE\STDLIB.H
C:\PROGRAM FILES (X86)\MICROSOFT VISUAL STUDIO 12.0\VC\INCLUDE\LIMITS.H
C:\PROGRAM FILES (X86)\WINDOWS KITS\8.1\INCLUDE\SHARED\WTYPESBASE.H
C:\PROGRAM FILES (X86)\WINDOWS KITS\8.1\INCLUDE\UM\UNKNWNBASE.H
C:\PROGRAM FILES (X86)\WINDOWS KITS\8.1\INCLUDE\UM\OBJIDLBASE.H
C:\PROGRAM FILES (X86)\WINDOWS KITS\8.1\INCLUDE\UM\CGUID.H
C:\PROGRAM FILES (X86)\WINDOWS KITS\8.1\INCLUDE\UM\OBJIDL.H
C:\PROGRAM FILES (X86)\WINDOWS KITS\8.1\INCLUDE\SHARED\WTYPES.H
C:\PROGRAM FILES (X86)\WINDOWS KITS\8.1\INCLUDE\UM\URLMON.H
C:\PROGRAM FILES (X86)\WINDOWS KITS\8.1\INCLUDE\UM\OLEIDL.H
C:\PROGRAM FILES (X86)\WINDOWS KITS\8.1\INCLUDE\UM\SERVPROV.H
C:\PROGRAM FILES (X86)\WINDOWS KITS\8.1\INCLUDE\UM\MSXML.H
C:\PROGRAM FILES (X86)\WINDOWS KITS\8.1\INCLUDE\UM\OAIDL.H
C:\PROGRAM FILES (X86)\WINDOWS KITS\8.1\INCLUDE\UM\PROPIDL.H
C:\PROGRAM FILES (X86)\WINDOWS KITS\8.1\INCLUDE\UM\OLEAUTO.H
C:\PROGRAM FILES (X86)\WINDOWS KITS\8.1\INCLUDE\WINRT\WEAKREFERENCE.H
C:\PROGRAM FILES (X86)\WINDOWS KITS\8.1\INCLUDE\WINRT\INSPECTABLE.H
C:\PROGRAM FILES (X86)\WINDOWS KITS\8.1\INCLUDE\WINRT\HSTRING.H
C:\PROGRAM FILES (X86)\WINDOWS KITS\8.1\INCLUDE\WINRT\ROAPI.H
C:\PROGRAM FILES (X86)\WINDOWS KITS\8.1\INCLUDE\WINRT\ACTIVATION.H
C:\PROGRAM FILES (X86)\WINDOWS KITS\8.1\INCLUDE\WINRT\WRL\DEF.H
C:\PROGRAM FILES (X86)\WINDOWS KITS\8.1\INCLUDE\WINRT\WRL\INTERNAL.H
C:\PROGRAM FILES (X86)\MICROSOFT VISUAL STUDIO 12.0\VC\INCLUDE\CRTDBG.H
C:\PROGRAM FILES (X86)\WINDOWS KITS\8.1\INCLUDE\WINRT\WRL\IMPLEMENTS.H
C:\PROGRAM FILES (X86)\WINDOWS KITS\8.1\INCLUDE\WINRT\WINSTRING.H
C:\PROGRAM FILES (X86)\MICROSOFT VISUAL STUDIO 12.0\VC\INCLUDE\NEW.H
C:\PROGRAM FILES (X86)\MICROSOFT VISUAL STUDIO 12.0\VC\INCLUDE\INTRIN.H
C:\PROGRAM FILES (X86)\MICROSOFT VISUAL STUDIO 12.0\VC\INCLUDE\SETJMP.H
C:\PROGRAM FILES (X86)\MICROSOFT VISUAL STUDIO 12.0\VC\INCLUDE\IMMINTRIN.H
C:\PROGRAM FILES (X86)\MICROSOFT VISUAL STUDIO 12.0\VC\INCLUDE\WMMINTRIN.H
C:\PROGRAM FILES (X86)\MICROSOFT VISUAL STUDIO 12.0\VC\INCLUDE\NMMINTRIN.H
C:\PROGRAM FILES (X86)\MICROSOFT VISUAL STUDIO 12.0\VC\INCLUDE\SMMINTRIN.H
C:\PROGRAM FILES (X86)\MICROSOFT VISUAL STUDIO 12.0\VC\INCLUDE\TMMINTRIN.H
C:\PROGRAM FILES (X86)\MICROSOFT VISUAL STUDIO 12.0\VC\INCLUDE\PMMINTRIN.H
C:\PROGRAM FILES (X86)\MICROSOFT VISUAL STUDIO 12.0\VC\INCLUDE\EMMINTRIN.H
C:\PROGRAM FILES (X86)\MICROSOFT VISUAL STUDIO 12.0\VC\INCLUDE\XMMINTRIN.H
C:\PROGRAM FILES (X86)\MICROSOFT VISUAL STUDIO 12.0\VC\INCLUDE\MMINTRIN.H
C:\PROGRAM FILES (X86)\MICROSOFT VISUAL STUDIO 12.0\VC\INCLUDE\MALLOC.H
C:\PROGRAM FILES (X86)\MICROSOFT VISUAL STUDIO 12.0\VC\INCLUDE\AMMINTRIN.H
C:\PROGRAM FILES (X86)\MICROSOFT VISUAL STUDIO 12.0\VC\INCLUDE\MM3DNOW.H
C:\PROGRAM FILES (X86)\WINDOWS KITS\8.1\INCLUDE\WINRT\ROERRORAPI.H
C:\PROGRAM FILES (X86)\WINDOWS KITS\8.1\INCLUDE\UM\RESTRICTEDERRORINFO.H
C:\PROGRAM FILES (X86)\WINDOWS KITS\8.1\INCLUDE\WINRT\WRL\MODULE.H
C:\PROGRAM FILES (X86)\WINDOWS KITS\8.1\INCLUDE\WINRT\WRL\FTM.H
C:\PROGRAM FILES (X86)\WINDOWS KITS\8.1\INCLUDE\WINRT\WRL\WRAPPERS\COREWRAPPERS.H
C:\PROGRAM FILES (X86)\WINDOWS KITS\8.1\INCLUDE\SHARED\INTSAFE.H
C:\PROGRAM FILES (X86)\WINDOWS KITS\8.1\INCLUDE\WINRT\WRL\EVENT.H
C:\PROGRAM FILES (X86)\WINDOWS KITS\8.1\INCLUDE\WINRT\EVENTTOKEN.H
C:\PROGRAM FILES (X86)\MICROSOFT VISUAL STUDIO 12.0\VC\INCLUDE\AGILE.H
C:\PROGRAM FILES (X86)\MICROSOFT VISUAL STUDIO 12.0\VC\INCLUDE\ALGORITHM
C:\PROGRAM FILES (X86)\MICROSOFT VISUAL STUDIO 12.0\VC\INCLUDE\XMEMORY
C:\PROGRAM FILES (X86)\MICROSOFT VISUAL STUDIO 12.0\VC\INCLUDE\XMEMORY0
C:\PROGRAM FILES (X86)\MICROSOFT VISUAL STUDIO 12.0\VC\INCLUDE\CSTDLIB
C:\PROGRAM FILES (X86)\MICROSOFT VISUAL STUDIO 12.0\VC\INCLUDE\YVALS.H
C:\PROGRAM FILES (X86)\MICROSOFT VISUAL STUDIO 12.0\VC\INCLUDE\XKEYCHECK.H
C:\PROGRAM FILES (X86)\MICROSOFT VISUAL STUDIO 12.0\VC\INCLUDE\USE_ANSI.H
C:\PROGRAM FILES (X86)\MICROSOFT VISUAL STUDIO 12.0\VC\INCLUDE\LIMITS
C:\PROGRAM FILES (X86)\MICROSOFT VISUAL STUDIO 12.0\VC\INCLUDE\YMATH.H
C:\PROGRAM FILES (X86)\MICROSOFT VISUAL STUDIO 12.0\VC\INCLUDE\CFLOAT
C:\PROGRAM FILES (X86)\MICROSOFT VISUAL STUDIO 12.0\VC\INCLUDE\FLOAT.H
C:\PROGRAM FILES (X86)\MICROSOFT VISUAL STUDIO 12.0\VC\INCLUDE\CRTWRN.H
C:\PROGRAM FILES (X86)\MICROSOFT VISUAL STUDIO 12.0\VC\INCLUDE\CLIMITS
C:\PROGRAM FILES (X86)\MICROSOFT VISUAL STUDIO 12.0\VC\INCLUDE\CMATH
C:\PROGRAM FILES (X86)\MICROSOFT VISUAL STUDIO 12.0\VC\INCLUDE\MATH.H
C:\PROGRAM FILES (X86)\MICROSOFT VISUAL STUDIO 12.0\VC\INCLUDE\XTGMATH.H
C:\PROGRAM FILES (X86)\MICROSOFT VISUAL STUDIO 12.0\VC\INCLUDE\XTR1COMMON
C:\PROGRAM FILES (X86)\MICROSOFT VISUAL STUDIO 12.0\VC\INCLUDE\CWCHAR
C:\PROGRAM FILES (X86)\MICROSOFT VISUAL STUDIO 12.0\VC\INCLUDE\WCHAR.H
C:\PROGRAM FILES (X86)\MICROSOFT VISUAL STUDIO 12.0\VC\INCLUDE\SWPRINTF.INL
C:\PROGRAM FILES (X86)\MICROSOFT VISUAL STUDIO 12.0\VC\INCLUDE\WTIME.INL
C:\PROGRAM FILES (X86)\MICROSOFT VISUAL STUDIO 12.0\VC\INCLUDE\XSTDDEF
C:\PROGRAM FILES (X86)\MICROSOFT VISUAL STUDIO 12.0\VC\INCLUDE\CSTDDEF
C:\PROGRAM FILES (X86)\MICROSOFT VISUAL STUDIO 12.0\VC\INCLUDE\INITIALIZER_LIST
C:\PROGRAM FILES (X86)\MICROSOFT VISUAL STUDIO 12.0\VC\INCLUDE\NEW
C:\PROGRAM FILES (X86)\MICROSOFT VISUAL STUDIO 12.0\VC\INCLUDE\EXCEPTION
C:\PROGRAM FILES (X86)\MICROSOFT VISUAL STUDIO 12.0\VC\INCLUDE\EH.H
C:\PROGRAM FILES (X86)\MICROSOFT VISUAL STUDIO 12.0\VC\INCLUDE\XUTILITY
C:\PROGRAM FILES (X86)\MICROSOFT VISUAL STUDIO 12.0\VC\INCLUDE\UTILITY
C:\PROGRAM FILES (X86)\MICROSOFT VISUAL STUDIO 12.0\VC\INCLUDE\IOSFWD
C:\PROGRAM FILES (X86)\MICROSOFT VISUAL STUDIO 12.0\VC\INCLUDE\CSTDIO
C:\PROGRAM FILES (X86)\MICROSOFT VISUAL STUDIO 12.0\VC\INCLUDE\STDIO.H
C:\PROGRAM FILES (X86)\MICROSOFT VISUAL STUDIO 12.0\VC\INCLUDE\CSTRING
C:\PROGRAM FILES (X86)\MICROSOFT VISUAL STUDIO 12.0\VC\INCLUDE\TYPE_TRAITS
C:\PROGRAM FILES (X86)\MICROSOFT VISUAL STUDIO 12.0\VC\INCLUDE\XREFWRAP
C:\PROGRAM FILES (X86)\MICROSOFT VISUAL STUDIO 12.0\VC\INCLUDE\XATOMIC0.H
C:\PROGRAM FILES (X86)\MICROSOFT VISUAL STUDIO 12.0\VC\INCLUDE\CONCRT.H
C:\PROGRAM FILES (X86)\WINDOWS KITS\8.1\INCLUDE\UM\D3D11_2.H
C:\PROGRAM FILES (X86)\WINDOWS KITS\8.1\INCLUDE\UM\OCIDL.H
C:\PROGRAM FILES (X86)\WINDOWS KITS\8.1\INCLUDE\SHARED\DXGI1_3.H
C:\PROGRAM FILES (X86)\WINDOWS KITS\8.1\INCLUDE\SHARED\DXGI1_2.H
C:\PROGRAM FILES (X86)\WINDOWS KITS\8.1\INCLUDE\SHARED\DXGI.H
C:\PROGRAM FILES (X86)\WINDOWS KITS\8.1\INCLUDE\SHARED\DXGITYPE.H
C:\PROGRAM FILES (X86)\WINDOWS KITS\8.1\INCLUDE\SHARED\DXGIFORMAT.H
C:\PROGRAM FILES (X86)\WINDOWS KITS\8.1\INCLUDE\UM\D3DCOMMON.H
C:\PROGRAM FILES (X86)\WINDOWS KITS\8.1\INCLUDE\UM\D3D11_1.H
C:\PROGRAM FILES (X86)\WINDOWS KITS\8.1\INCLUDE\UM\D3D11.H
C:\PROGRAM FILES (X86)\WINDOWS KITS\8.1\INCLUDE\UM\D3D11SDKLAYERS.H
C:\PROGRAM FILES (X86)\WINDOWS KITS\8.1\INCLUDE\UM\D3D10_1.H
C:\PROGRAM FILES (X86)\WINDOWS KITS\8.1\INCLUDE\UM\D3D10.H
C:\PROGRAM FILES (X86)\WINDOWS KITS\8.1\INCLUDE\UM\D2D1_2.H
C:\PROGRAM FILES (X86)\WINDOWS KITS\8.1\INCLUDE\UM\D2D1_1.H
C:\PROGRAM FILES (X86)\WINDOWS KITS\8.1\INCLUDE\UM\D2D1.H
C:\PROGRAM FILES (X86)\WINDOWS KITS\8.1\INCLUDE\UM\DCOMMON.H
C:\PROGRAM FILES (X86)\WINDOWS KITS\8.1\INCLUDE\UM\D2DERR.H
C:\PROGRAM FILES (X86)\WINDOWS KITS\8.1\INCLUDE\UM\D2DBASETYPES.H
C:\PROGRAM FILES (X86)\WINDOWS KITS\8.1\INCLUDE\UM\D2D1HELPER.H
C:\PROGRAM FILES (X86)\WINDOWS KITS\8.1\INCLUDE\UM\D2D1EFFECTS.H
C:\PROGRAM FILES (X86)\WINDOWS KITS\8.1\INCLUDE\UM\D2D1_1HELPER.H
C:\PROGRAM FILES (X86)\WINDOWS KITS\8.1\INCLUDE\UM\D2D1EFFECTS_1.H
C:\PROGRAM FILES (X86)\WINDOWS KITS\8.1\INCLUDE\UM\D2D1_2HELPER.H
C:\PROGRAM FILES (X86)\WINDOWS KITS\8.1\INCLUDE\UM\DWRITE_2.H
C:\PROGRAM FILES (X86)\WINDOWS KITS\8.1\INCLUDE\UM\DWRITE_1.H
C:\PROGRAM FILES (X86)\WINDOWS KITS\8.1\INCLUDE\UM\DWRITE.H
C:\PROGRAM FILES (X86)\WINDOWS KITS\8.1\INCLUDE\UM\WINCODEC.H
C:\PROGRAM FILES (X86)\WINDOWS KITS\8.1\INCLUDE\UM\DIRECTXCOLORS.H
C:\PROGRAM FILES (X86)\WINDOWS KITS\8.1\INCLUDE\UM\DIRECTXMATH.H
C:\PROGRAM FILES (X86)\MICROSOFT VISUAL STUDIO 12.0\VC\INCLUDE\ASSERT.H
C:\PROGRAM FILES (X86)\MICROSOFT VISUAL STUDIO 12.0\VC\INCLUDE\STDINT.H
C:\PROGRAM FILES (X86)\WINDOWS KITS\8.1\INCLUDE\UM\DIRECTXMATHCONVERT.INL
C:\PROGRAM FILES (X86)\WINDOWS KITS\8.1\INCLUDE\UM\DIRECTXMATHVECTOR.INL
C:\PROGRAM FILES (X86)\WINDOWS KITS\8.1\INCLUDE\UM\DIRECTXMATHMATRIX.INL
C:\PROGRAM FILES (X86)\WINDOWS KITS\8.1\INCLUDE\UM\DIRECTXMATHMISC.INL
C:\PROGRAM FILES (X86)\WINDOWS KITS\8.1\INCLUDE\UM\DIRECTXCOLLISION.H
C:\PROGRAM FILES (X86)\WINDOWS KITS\8.1\INCLUDE\UM\DIRECTXCOLLISION.INL
C:\PROGRAM FILES (X86)\MICROSOFT VISUAL STUDIO 12.0\VC\INCLUDE\PPLTASKS.H
C:\PROGRAM FILES (X86)\MICROSOFT VISUAL STUDIO 12.0\VC\INCLUDE\PPLCONCRT.H
C:\PROGRAM FILES (X86)\MICROSOFT VISUAL STUDIO 12.0\VC\INCLUDE\PPLINTERFACE.H
C:\PROGRAM FILES (X86)\MICROSOFT VISUAL STUDIO 12.0\VC\INCLUDE\MEMORY
C:\PROGRAM FILES (X86)\MICROSOFT VISUAL STUDIO 12.0\VC\INCLUDE\TYPEINFO
C:\PROGRAM FILES (X86)\MICROSOFT VISUAL STUDIO 12.0\VC\INCLUDE\ATOMIC
C:\PROGRAM FILES (X86)\MICROSOFT VISUAL STUDIO 12.0\VC\INCLUDE\XATOMIC.H
C:\PROGRAM FILES (X86)\MICROSOFT VISUAL STUDIO 12.0\VC\INCLUDE\XXATOMIC
C:\PROGRAM FILES (X86)\MICROSOFT VISUAL STUDIO 12.0\VC\INCLUDE\PPLCANCELLATION_TOKEN.H
C:\PROGRAM FILES (X86)\MICROSOFT VISUAL STUDIO 12.0\VC\INCLUDE\PPL.H
C:\PROGRAM FILES (X86)\MICROSOFT VISUAL STUDIO 12.0\VC\INCLUDE\STDEXCEPT
C:\PROGRAM FILES (X86)\MICROSOFT VISUAL STUDIO 12.0\VC\INCLUDE\XSTRING
C:\PROGRAM FILES (X86)\MICROSOFT VISUAL STUDIO 12.0\VC\INCLUDE\ITERATOR
C:\PROGRAM FILES (X86)\MICROSOFT VISUAL STUDIO 12.0\VC\INCLUDE\ISTREAM
C:\PROGRAM FILES (X86)\MICROSOFT VISUAL STUDIO 12.0\VC\INCLUDE\OSTREAM
C:\PROGRAM FILES (X86)\MICROSOFT VISUAL STUDIO 12.0\VC\INCLUDE\IOS
C:\PROGRAM FILES (X86)\MICROSOFT VISUAL STUDIO 12.0\VC\INCLUDE\XLOCNUM
C:\PROGRAM FILES (X86)\MICROSOFT VISUAL STUDIO 12.0\VC\INCLUDE\STREAMBUF
C:\PROGRAM FILES (X86)\MICROSOFT VISUAL STUDIO 12.0\VC\INCLUDE\XIOSBASE
C:\PROGRAM FILES (X86)\MICROSOFT VISUAL STUDIO 12.0\VC\INCLUDE\XLOCALE
C:\PROGRAM FILES (X86)\MICROSOFT VISUAL STUDIO 12.0\VC\INCLUDE\XLOCINFO
C:\PROGRAM FILES (X86)\MICROSOFT VISUAL STUDIO 12.0\VC\INCLUDE\XLOCINFO.H
C:\PROGRAM FILES (X86)\MICROSOFT VISUAL STUDIO 12.0\VC\INCLUDE\LOCALE.H
C:\PROGRAM FILES (X86)\MICROSOFT VISUAL STUDIO 12.0\VC\INCLUDE\XDEBUG
C:\PROGRAM FILES (X86)\MICROSOFT VISUAL STUDIO 12.0\VC\INCLUDE\XFACET
C:\PROGRAM FILES (X86)\MICROSOFT VISUAL STUDIO 12.0\VC\INCLUDE\SYSTEM_ERROR
C:\PROGRAM FILES (X86)\MICROSOFT VISUAL STUDIO 12.0\VC\INCLUDE\CERRNO
C:\PROGRAM FILES (X86)\MICROSOFT VISUAL STUDIO 12.0\VC\INCLUDE\ERRNO.H
C:\PROGRAM FILES (X86)\MICROSOFT VISUAL STUDIO 12.0\VC\INCLUDE\SHARE.H
C:\PROGRAM FILES (X86)\MICROSOFT VISUAL STUDIO 12.0\VC\INCLUDE\FUNCTIONAL
C:\PROGRAM FILES (X86)\MICROSOFT VISUAL STUDIO 12.0\VC\INCLUDE\XFUNCTIONAL
C:\PROGRAM FILES (X86)\MICROSOFT VISUAL STUDIO 12.0\VC\INCLUDE\TUPLE
C:\PROGRAM FILES (X86)\MICROSOFT VISUAL STUDIO 12.0\VC\INCLUDE\VECTOR
C:\PROGRAM FILES (X86)\WINDOWS KITS\8.1\INCLUDE\UM\CTXTCALL.H
C:\PROGRAM FILES (X86)\MICROSOFT VISUAL STUDIO 12.0\VC\INCLUDE\STRING
C:\PROGRAM FILES (X86)\MICROSOFT VISUAL STUDIO 12.0\VC\INCLUDE\SSTREAM
C:\PROGRAM FILES (X86)\MICROSOFT VISUAL STUDIO 12.0\VC\INCLUDE\FSTREAM
C:\PROGRAM FILES (X86)\MICROSOFT VISUAL STUDIO 12.0\VC\INCLUDE\IOMANIP
C:\PROGRAM FILES (X86)\MICROSOFT VISUAL STUDIO 12.0\VC\INCLUDE\XLOCMON
C:\PROGRAM FILES (X86)\MICROSOFT VISUAL STUDIO 12.0\VC\INCLUDE\XLOCTIME
C:\PROGRAM FILES (X86)\MICROSOFT VISUAL STUDIO 12.0\VC\INCLUDE\CTIME
C:\PROGRAM FILES (X86)\MICROSOFT VISUAL STUDIO 12.0\VC\INCLUDE\TIME.H
C:\PROGRAM FILES (X86)\MICROSOFT VISUAL STUDIO 12.0\VC\INCLUDE\TIME.INL
C:\PROGRAM FILES (X86)\MICROSOFT VISUAL STUDIO 12.0\VC\INCLUDE\THREAD
C:\PROGRAM FILES (X86)\MICROSOFT VISUAL STUDIO 12.0\VC\INCLUDE\CHRONO
C:\PROGRAM FILES (X86)\MICROSOFT VISUAL STUDIO 12.0\VC\INCLUDE\RATIO
C:\PROGRAM FILES (X86)\MICROSOFT VISUAL STUDIO 12.0\VC\INCLUDE\THR\XTIMEC.H
C:\PROGRAM FILES (X86)\MICROSOFT VISUAL STUDIO 12.0\VC\INCLUDE\THR\XTHRCOMMON.H
C:\PROGRAM FILES (X86)\MICROSOFT VISUAL STUDIO 12.0\VC\INCLUDE\THR\XTHREAD
C:\PROGRAM FILES (X86)\MICROSOFT VISUAL STUDIO 12.0\VC\INCLUDE\THR\XTIME
C:\PROGRAM FILES (X86)\MICROSOFT VISUAL STUDIO 12.0\VC\INCLUDE\THR\XTHREADS.H
C:\PROGRAM FILES (X86)\MICROSOFT VISUAL STUDIO 12.0\VC\INCLUDE\MUTEX
C:\PROGRAM FILES (X86)\MICROSOFT VISUAL STUDIO 12.0\VC\INCLUDE\ARRAY
C:\PROGRAM FILES (X86)\MICROSOFT VISUAL STUDIO 12.0\VC\INCLUDE\MAP
C:\PROGRAM FILES (X86)\MICROSOFT VISUAL STUDIO 12.0\VC\INCLUDE\XTREE
^C:\USERS\IVAN\DESKTOP\SHADOWMAPPINGNEW\SHADOWMAPPING\ENGINE\CORE\CONTENT\SAMPLEFPSTEXTRENDERER.CPP
C:\USERS\IVAN\DESKTOP\SHADOWMAPPINGNEW\SHADOWMAPPING\ENGINE\RELEASE\ENGINE.PCH
C:\WINDOWS\MICROSOFT.NET\FRAMEWORK\V2.0.50727\MSCORWKS.DLL
C:\WINDOWS\MICROSOFT.NET\FRAMEWORK\V4.0.30319\CLR.DLL
C:\PROGRAM FILES (X86)\MICROSOFT VISUAL STUDIO 12.0\VC\BIN\CL.EXE.CONFIG
C:\PROGRAM FILES (X86)\MICROSOFT SDKS\WINDOWS\V8.1\EXTENSIONSDKS\MICROSOFT.VCLIBS\12.0\REFERENCES\COMMONCONFIGURATION\NEUTRAL\PLATFORM.WINMD
C:\PROGRAM FILES (X86)\WINDOWS KITS\8.1\REFERENCES\COMMONCONFIGURATION\NEUTRAL\WINDOWS.WINMD
C:\USERS\IVAN\DESKTOP\SHADOWMAPPINGNEW\SHADOWMAPPING\ENGINE\RELEASE\PCH.OBJ
C:\USERS\IVAN\DESKTOP\SHADOWMAPPINGNEW\SHADOWMAPPING\ENGINE\UTILITIES.H
C:\USERS\IVAN\DESKTOP\SHADOWMAPPINGNEW\SHADOWMAPPING\ENGINE\CORE\CONTENT\SAMPLEFPSTEXTRENDERER.H
C:\USERS\IVAN\DESKTOP\SHADOWMAPPINGNEW\SHADOWMAPPING\ENGINE\CORE\COMMON\DEVICERESOURCES.H
C:\USERS\IVAN\DESKTOP\SHADOWMAPPINGNEW\SHADOWMAPPING\ENGINE\CORE\COMMON\STEPTIMER.H
C:\USERS\IVAN\DESKTOP\SHADOWMAPPINGNEW\SHADOWMAPPING\ENGINE\CORE\COMMON\DIRECTXHELPER.H
^C:\USERS\IVAN\DESKTOP\SHADOWMAPPINGNEW\SHADOWMAPPING\ENGINE\PIPELINE RESOURCES\TEXTURES\TEXTURE2D.CPP
C:\USERS\IVAN\DESKTOP\SHADOWMAPPINGNEW\SHADOWMAPPING\ENGINE\RELEASE\ENGINE.PCH
C:\PROGRAM FILES (X86)\MICROSOFT VISUAL STUDIO 12.0\VC\BIN\CL.EXE.CONFIG
C:\PROGRAM FILES (X86)\MICROSOFT SDKS\WINDOWS\V8.1\EXTENSIONSDKS\MICROSOFT.VCLIBS\12.0\REFERENCES\COMMONCONFIGURATION\NEUTRAL\PLATFORM.WINMD
C:\PROGRAM FILES (X86)\WINDOWS KITS\8.1\REFERENCES\COMMONCONFIGURATION\NEUTRAL\WINDOWS.WINMD
C:\USERS\IVAN\DESKTOP\SHADOWMAPPINGNEW\SHADOWMAPPING\ENGINE\RELEASE\PCH.OBJ
C:\USERS\IVAN\DESKTOP\SHADOWMAPPINGNEW\SHADOWMAPPING\ENGINE\PIPELINE RESOURCES\TEXTURES\TEXTURE2D.H
C:\USERS\IVAN\DESKTOP\SHADOWMAPPINGNEW\SHADOWMAPPING\ENGINE\PIPELINE RESOURCES\TEXTURES\TEXTURE BASE.H
C:\USERS\IVAN\DESKTOP\SHADOWMAPPINGNEW\SHADOWMAPPING\ENGINE\PIPELINE STAGES\STATE FACTORY.H
C:\USERS\IVAN\DESKTOP\SHADOWMAPPINGNEW\SHADOWMAPPING\ENGINE\UTILITIES.H
C:\USERS\IVAN\DESKTOP\SHADOWMAPPINGNEW\SHADOWMAPPING\ENGINE\PIPELINE RESOURCES\RESOURCE FACTORY.H
C:\USERS\IVAN\DESKTOP\SHADOWMAPPINGNEW\SHADOWMAPPING\ENGINE\PIPELINE STAGES\SHADERS\SHADER BASE.H
C:\USERS\IVAN\DESKTOP\SHADOWMAPPINGNEW\SHADOWMAPPING\ENGINE\THIRD PARTY\DIRECTX TOOL KIT\DDS\DDSTEXTURELOADER.H
C:\USERS\IVAN\DESKTOP\SHADOWMAPPINGNEW\SHADOWMAPPING\ENGINE\THIRD PARTY\DIRECTX TOOL KIT\WIC\WICTEXTURELOADER.H
C:\USERS\IVAN\DESKTOP\SHADOWMAPPINGNEW\SHADOWMAPPING\ENGINE\CORE\COMMON\DIRECTXHELPER.H
^C:\USERS\IVAN\DESKTOP\SHADOWMAPPINGNEW\SHADOWMAPPING\ENGINE\CORE\COMMON\DEVICERESOURCES.CPP
C:\USERS\IVAN\DESKTOP\SHADOWMAPPINGNEW\SHADOWMAPPING\ENGINE\RELEASE\ENGINE.PCH
C:\WINDOWS\MICROSOFT.NET\FRAMEWORK\V2.0.50727\MSCORWKS.DLL
C:\WINDOWS\MICROSOFT.NET\FRAMEWORK\V4.0.30319\CLR.DLL
C:\PROGRAM FILES (X86)\MICROSOFT VISUAL STUDIO 12.0\VC\BIN\CL.EXE.CONFIG
C:\PROGRAM FILES (X86)\MICROSOFT SDKS\WINDOWS\V8.1\EXTENSIONSDKS\MICROSOFT.VCLIBS\12.0\REFERENCES\COMMONCONFIGURATION\NEUTRAL\PLATFORM.WINMD
C:\PROGRAM FILES (X86)\WINDOWS KITS\8.1\REFERENCES\COMMONCONFIGURATION\NEUTRAL\WINDOWS.WINMD
C:\USERS\IVAN\DESKTOP\SHADOWMAPPINGNEW\SHADOWMAPPING\ENGINE\RELEASE\PCH.OBJ
C:\USERS\IVAN\DESKTOP\SHADOWMAPPINGNEW\SHADOWMAPPING\ENGINE\UTILITIES.H
C:\USERS\IVAN\DESKTOP\SHADOWMAPPINGNEW\SHADOWMAPPING\ENGINE\HELPERS.H
C:\USERS\IVAN\DESKTOP\SHADOWMAPPINGNEW\SHADOWMAPPING\ENGINE\CORE\COMMON\DEVICERESOURCES.H
C:\USERS\IVAN\DESKTOP\SHADOWMAPPINGNEW\SHADOWMAPPING\ENGINE\CORE\COMMON\DIRECTXHELPER.H
C:\USERS\IVAN\DESKTOP\SHADOWMAPPINGNEW\SHADOWMAPPING\ENGINE\CORE\COMMON\SWAPCHAINDESCRIPTION.H
C:\USERS\IVAN\DESKTOP\SHADOWMAPPINGNEW\SHADOWMAPPING\ENGINE\PIPELINE STAGES\STATE FACTORY.H
C:\USERS\IVAN\DESKTOP\SHADOWMAPPINGNEW\SHADOWMAPPING\ENGINE\PIPELINE RESOURCES\RESOURCE FACTORY.H
^C:\USERS\IVAN\DESKTOP\SHADOWMAPPINGNEW\SHADOWMAPPING\ENGINE\SCENE\INPUT\INPUT CONTROLLER.CPP
C:\USERS\IVAN\DESKTOP\SHADOWMAPPINGNEW\SHADOWMAPPING\ENGINE\RELEASE\ENGINE.PCH
C:\PROGRAM FILES (X86)\MICROSOFT VISUAL STUDIO 12.0\VC\BIN\CL.EXE.CONFIG
C:\PROGRAM FILES (X86)\MICROSOFT SDKS\WINDOWS\V8.1\EXTENSIONSDKS\MICROSOFT.VCLIBS\12.0\REFERENCES\COMMONCONFIGURATION\NEUTRAL\PLATFORM.WINMD
C:\PROGRAM FILES (X86)\WINDOWS KITS\8.1\REFERENCES\COMMONCONFIGURATION\NEUTRAL\WINDOWS.WINMD
C:\USERS\IVAN\DESKTOP\SHADOWMAPPINGNEW\SHADOWMAPPING\ENGINE\RELEASE\PCH.OBJ
C:\USERS\IVAN\DESKTOP\SHADOWMAPPINGNEW\SHADOWMAPPING\ENGINE\SCENE\INPUT\INPUT CONTROLLER.H
C:\USERS\IVAN\DESKTOP\SHADOWMAPPINGNEW\SHADOWMAPPING\ENGINE\SCENE\INPUT\KEYBOARD.H
C:\USERS\IVAN\DESKTOP\SHADOWMAPPINGNEW\SHADOWMAPPING\ENGINE\UTILITIES.H
C:\USERS\IVAN\DESKTOP\SHADOWMAPPINGNEW\SHADOWMAPPING\ENGINE\SCENE\INPUT\POINTER.H
^C:\USERS\IVAN\DESKTOP\SHADOWMAPPINGNEW\SHADOWMAPPING\ENGINE\THIRD PARTY\DIRECTX TOOL KIT\VERTEXTYPES.CPP
C:\USERS\IVAN\DESKTOP\SHADOWMAPPINGNEW\SHADOWMAPPING\ENGINE\RELEASE\ENGINE.PCH
C:\PROGRAM FILES (X86)\MICROSOFT VISUAL STUDIO 12.0\VC\BIN\CL.EXE.CONFIG
C:\PROGRAM FILES (X86)\MICROSOFT SDKS\WINDOWS\V8.1\EXTENSIONSDKS\MICROSOFT.VCLIBS\12.0\REFERENCES\COMMONCONFIGURATION\NEUTRAL\PLATFORM.WINMD
C:\PROGRAM FILES (X86)\WINDOWS KITS\8.1\REFERENCES\COMMONCONFIGURATION\NEUTRAL\WINDOWS.WINMD
C:\USERS\IVAN\DESKTOP\SHADOWMAPPINGNEW\SHADOWMAPPING\ENGINE\RELEASE\PCH.OBJ
C:\USERS\IVAN\DESKTOP\SHADOWMAPPINGNEW\SHADOWMAPPING\ENGINE\THIRD PARTY\DIRECTX TOOL KIT\VERTEXTYPES.H
C:\PROGRAM FILES (X86)\WINDOWS KITS\8.1\INCLUDE\UM\DIRECTXPACKEDVECTOR.H
C:\PROGRAM FILES (X86)\WINDOWS KITS\8.1\INCLUDE\UM\DIRECTXPACKEDVECTOR.INL
^C:\USERS\IVAN\DESKTOP\SHADOWMAPPINGNEW\SHADOWMAPPING\ENGINE\CORE\CONTENT\RENDERERBASE3D.CPP
C:\USERS\IVAN\DESKTOP\SHADOWMAPPINGNEW\SHADOWMAPPING\ENGINE\RELEASE\ENGINE.PCH
C:\WINDOWS\MICROSOFT.NET\FRAMEWORK\V2.0.50727\MSCORWKS.DLL
C:\WINDOWS\MICROSOFT.NET\FRAMEWORK\V4.0.30319\CLR.DLL
C:\PROGRAM FILES (X86)\MICROSOFT VISUAL STUDIO 12.0\VC\BIN\CL.EXE.CONFIG
C:\PROGRAM FILES (X86)\MICROSOFT SDKS\WINDOWS\V8.1\EXTENSIONSDKS\MICROSOFT.VCLIBS\12.0\REFERENCES\COMMONCONFIGURATION\NEUTRAL\PLATFORM.WINMD
C:\PROGRAM FILES (X86)\WINDOWS KITS\8.1\REFERENCES\COMMONCONFIGURATION\NEUTRAL\WINDOWS.WINMD
C:\USERS\IVAN\DESKTOP\SHADOWMAPPINGNEW\SHADOWMAPPING\ENGINE\RELEASE\PCH.OBJ
C:\USERS\IVAN\DESKTOP\SHADOWMAPPINGNEW\SHADOWMAPPING\ENGINE\CORE\CONTENT\RENDERERBASE3D.H
C:\USERS\IVAN\DESKTOP\SHADOWMAPPINGNEW\SHADOWMAPPING\ENGINE\UTILITIES.H
C:\USERS\IVAN\DESKTOP\SHADOWMAPPINGNEW\SHADOWMAPPING\ENGINE\CORE\COMMON\DEVICERESOURCES.H
C:\USERS\IVAN\DESKTOP\SHADOWMAPPINGNEW\SHADOWMAPPING\ENGINE\CORE\COMMON\STEPTIMER.H
C:\USERS\IVAN\DESKTOP\SHADOWMAPPINGNEW\SHADOWMAPPING\ENGINE\SCENE\INPUT\INPUT CONTROLLER.H
C:\USERS\IVAN\DESKTOP\SHADOWMAPPINGNEW\SHADOWMAPPING\ENGINE\SCENE\INPUT\KEYBOARD.H
C:\USERS\IVAN\DESKTOP\SHADOWMAPPINGNEW\SHADOWMAPPING\ENGINE\SCENE\INPUT\POINTER.H
^C:\USERS\IVAN\DESKTOP\SHADOWMAPPINGNEW\SHADOWMAPPING\ENGINE\CORE\ENGINE MAIN.CPP
C:\USERS\IVAN\DESKTOP\SHADOWMAPPINGNEW\SHADOWMAPPING\ENGINE\RELEASE\ENGINE.PCH
C:\PROGRAM FILES (X86)\MICROSOFT VISUAL STUDIO 12.0\VC\BIN\CL.EXE.CONFIG
C:\PROGRAM FILES (X86)\MICROSOFT SDKS\WINDOWS\V8.1\EXTENSIONSDKS\MICROSOFT.VCLIBS\12.0\REFERENCES\COMMONCONFIGURATION\NEUTRAL\PLATFORM.WINMD
C:\PROGRAM FILES (X86)\WINDOWS KITS\8.1\REFERENCES\COMMONCONFIGURATION\NEUTRAL\WINDOWS.WINMD
C:\USERS\IVAN\DESKTOP\SHADOWMAPPINGNEW\SHADOWMAPPING\ENGINE\RELEASE\PCH.OBJ
C:\USERS\IVAN\DESKTOP\SHADOWMAPPINGNEW\SHADOWMAPPING\ENGINE\UTILITIES.H
C:\USERS\IVAN\DESKTOP\SHADOWMAPPINGNEW\SHADOWMAPPING\ENGINE\CORE\ENGINE MAIN.H
C:\USERS\IVAN\DESKTOP\SHADOWMAPPINGNEW\SHADOWMAPPING\ENGINE\CORE\COMMON\STEPTIMER.H
C:\USERS\IVAN\DESKTOP\SHADOWMAPPINGNEW\SHADOWMAPPING\ENGINE\CORE\COMMON\DEVICERESOURCES.H
C:\USERS\IVAN\DESKTOP\SHADOWMAPPINGNEW\SHADOWMAPPING\ENGINE\CORE\CONTENT\RENDERERBASE3D.H
C:\USERS\IVAN\DESKTOP\SHADOWMAPPINGNEW\SHADOWMAPPING\ENGINE\SCENE\INPUT\INPUT CONTROLLER.H
C:\USERS\IVAN\DESKTOP\SHADOWMAPPINGNEW\SHADOWMAPPING\ENGINE\SCENE\INPUT\KEYBOARD.H
C:\USERS\IVAN\DESKTOP\SHADOWMAPPINGNEW\SHADOWMAPPING\ENGINE\SCENE\INPUT\POINTER.H
C:\USERS\IVAN\DESKTOP\SHADOWMAPPINGNEW\SHADOWMAPPING\ENGINE\CORE\CONTENT\SAMPLEFPSTEXTRENDERER.H
C:\USERS\IVAN\DESKTOP\SHADOWMAPPINGNEW\SHADOWMAPPING\ENGINE\CORE\COMMON\DIRECTXHELPER.H
^C:\USERS\IVAN\DESKTOP\SHADOWMAPPINGNEW\SHADOWMAPPING\ENGINE\THIRD PARTY\DIRECTX TOOL KIT\WIC\WICTEXTURELOADER.CPP
C:\USERS\IVAN\DESKTOP\SHADOWMAPPINGNEW\SHADOWMAPPING\ENGINE\RELEASE\ENGINE.PCH
C:\PROGRAM FILES (X86)\MICROSOFT VISUAL STUDIO 12.0\VC\BIN\CL.EXE.CONFIG
C:\PROGRAM FILES (X86)\MICROSOFT SDKS\WINDOWS\V8.1\EXTENSIONSDKS\MICROSOFT.VCLIBS\12.0\REFERENCES\COMMONCONFIGURATION\NEUTRAL\PLATFORM.WINMD
C:\PROGRAM FILES (X86)\WINDOWS KITS\8.1\REFERENCES\COMMONCONFIGURATION\NEUTRAL\WINDOWS.WINMD
C:\USERS\IVAN\DESKTOP\SHADOWMAPPINGNEW\SHADOWMAPPING\ENGINE\RELEASE\PCH.OBJ
C:\USERS\IVAN\DESKTOP\SHADOWMAPPINGNEW\SHADOWMAPPING\ENGINE\THIRD PARTY\DIRECTX TOOL KIT\WIC\WICTEXTURELOADER.H
C:\USERS\IVAN\DESKTOP\SHADOWMAPPINGNEW\SHADOWMAPPING\ENGINE\CORE\COMMON\DIRECTXHELPER.H
^C:\USERS\IVAN\DESKTOP\SHADOWMAPPINGNEW\SHADOWMAPPING\ENGINE\CORE\APP.CPP
C:\USERS\IVAN\DESKTOP\SHADOWMAPPINGNEW\SHADOWMAPPING\ENGINE\RELEASE\ENGINE.PCH
C:\WINDOWS\MICROSOFT.NET\FRAMEWORK\V2.0.50727\MSCORWKS.DLL
C:\WINDOWS\MICROSOFT.NET\FRAMEWORK\V4.0.30319\CLR.DLL
C:\PROGRAM FILES (X86)\MICROSOFT VISUAL STUDIO 12.0\VC\BIN\CL.EXE.CONFIG
C:\PROGRAM FILES (X86)\MICROSOFT SDKS\WINDOWS\V8.1\EXTENSIONSDKS\MICROSOFT.VCLIBS\12.0\REFERENCES\COMMONCONFIGURATION\NEUTRAL\PLATFORM.WINMD
C:\PROGRAM FILES (X86)\WINDOWS KITS\8.1\REFERENCES\COMMONCONFIGURATION\NEUTRAL\WINDOWS.WINMD
C:\USERS\IVAN\DESKTOP\SHADOWMAPPINGNEW\SHADOWMAPPING\ENGINE\RELEASE\PCH.OBJ
C:\USERS\IVAN\DESKTOP\SHADOWMAPPINGNEW\SHADOWMAPPING\ENGINE\CORE\APP.H
C:\USERS\IVAN\DESKTOP\SHADOWMAPPINGNEW\SHADOWMAPPING\ENGINE\CORE\ENGINE MAIN.H
C:\USERS\IVAN\DESKTOP\SHADOWMAPPINGNEW\SHADOWMAPPING\ENGINE\CORE\COMMON\STEPTIMER.H
C:\USERS\IVAN\DESKTOP\SHADOWMAPPINGNEW\SHADOWMAPPING\ENGINE\CORE\COMMON\DEVICERESOURCES.H
C:\USERS\IVAN\DESKTOP\SHADOWMAPPINGNEW\SHADOWMAPPING\ENGINE\CORE\CONTENT\RENDERERBASE3D.H
C:\USERS\IVAN\DESKTOP\SHADOWMAPPINGNEW\SHADOWMAPPING\ENGINE\UTILITIES.H
C:\USERS\IVAN\DESKTOP\SHADOWMAPPINGNEW\SHADOWMAPPING\ENGINE\SCENE\INPUT\INPUT CONTROLLER.H
C:\USERS\IVAN\DESKTOP\SHADOWMAPPINGNEW\SHADOWMAPPING\ENGINE\SCENE\INPUT\KEYBOARD.H
C:\USERS\IVAN\DESKTOP\SHADOWMAPPINGNEW\SHADOWMAPPING\ENGINE\SCENE\INPUT\POINTER.H
C:\USERS\IVAN\DESKTOP\SHADOWMAPPINGNEW\SHADOWMAPPING\ENGINE\CORE\CONTENT\SAMPLEFPSTEXTRENDERER.H
^C:\USERS\IVAN\DESKTOP\SHADOWMAPPINGNEW\SHADOWMAPPING\ENGINE\PIPELINE RESOURCES\RESOURCE FACTORY.CPP
C:\USERS\IVAN\DESKTOP\SHADOWMAPPINGNEW\SHADOWMAPPING\ENGINE\RELEASE\ENGINE.PCH
C:\PROGRAM FILES (X86)\MICROSOFT VISUAL STUDIO 12.0\VC\BIN\CL.EXE.CONFIG
C:\PROGRAM FILES (X86)\MICROSOFT SDKS\WINDOWS\V8.1\EXTENSIONSDKS\MICROSOFT.VCLIBS\12.0\REFERENCES\COMMONCONFIGURATION\NEUTRAL\PLATFORM.WINMD
C:\PROGRAM FILES (X86)\WINDOWS KITS\8.1\REFERENCES\COMMONCONFIGURATION\NEUTRAL\WINDOWS.WINMD
C:\USERS\IVAN\DESKTOP\SHADOWMAPPINGNEW\SHADOWMAPPING\ENGINE\RELEASE\PCH.OBJ
C:\USERS\IVAN\DESKTOP\SHADOWMAPPINGNEW\SHADOWMAPPING\ENGINE\PIPELINE RESOURCES\RESOURCE FACTORY.H
C:\USERS\IVAN\DESKTOP\SHADOWMAPPINGNEW\SHADOWMAPPING\ENGINE\UTILITIES.H
^C:\USERS\IVAN\DESKTOP\SHADOWMAPPINGNEW\SHADOWMAPPING\ENGINE\PIPELINE STAGES\STATE FACTORY.CPP
C:\USERS\IVAN\DESKTOP\SHADOWMAPPINGNEW\SHADOWMAPPING\ENGINE\RELEASE\ENGINE.PCH
C:\PROGRAM FILES (X86)\MICROSOFT VISUAL STUDIO 12.0\VC\BIN\CL.EXE.CONFIG
C:\PROGRAM FILES (X86)\MICROSOFT SDKS\WINDOWS\V8.1\EXTENSIONSDKS\MICROSOFT.VCLIBS\12.0\REFERENCES\COMMONCONFIGURATION\NEUTRAL\PLATFORM.WINMD
C:\PROGRAM FILES (X86)\WINDOWS KITS\8.1\REFERENCES\COMMONCONFIGURATION\NEUTRAL\WINDOWS.WINMD
C:\USERS\IVAN\DESKTOP\SHADOWMAPPINGNEW\SHADOWMAPPING\ENGINE\RELEASE\PCH.OBJ
C:\USERS\IVAN\DESKTOP\SHADOWMAPPINGNEW\SHADOWMAPPING\ENGINE\PIPELINE STAGES\STATE FACTORY.H
C:\USERS\IVAN\DESKTOP\SHADOWMAPPINGNEW\SHADOWMAPPING\ENGINE\UTILITIES.H
^C:\USERS\IVAN\DESKTOP\SHADOWMAPPINGNEW\SHADOWMAPPING\ENGINE\SCENE\CAMERAS\FIRSTPERSON CAMERA.CPP
C:\USERS\IVAN\DESKTOP\SHADOWMAPPINGNEW\SHADOWMAPPING\ENGINE\RELEASE\ENGINE.PCH
C:\PROGRAM FILES (X86)\MICROSOFT VISUAL STUDIO 12.0\VC\BIN\CL.EXE.CONFIG
C:\PROGRAM FILES (X86)\MICROSOFT SDKS\WINDOWS\V8.1\EXTENSIONSDKS\MICROSOFT.VCLIBS\12.0\REFERENCES\COMMONCONFIGURATION\NEUTRAL\PLATFORM.WINMD
C:\PROGRAM FILES (X86)\WINDOWS KITS\8.1\REFERENCES\COMMONCONFIGURATION\NEUTRAL\WINDOWS.WINMD
C:\USERS\IVAN\DESKTOP\SHADOWMAPPINGNEW\SHADOWMAPPING\ENGINE\RELEASE\PCH.OBJ
C:\USERS\IVAN\DESKTOP\SHADOWMAPPINGNEW\SHADOWMAPPING\ENGINE\SCENE\CAMERAS\FIRSTPERSON CAMERA.H
C:\USERS\IVAN\DESKTOP\SHADOWMAPPINGNEW\SHADOWMAPPING\ENGINE\SCENE\INPUT\INPUT CONTROLLER.H
C:\USERS\IVAN\DESKTOP\SHADOWMAPPINGNEW\SHADOWMAPPING\ENGINE\SCENE\INPUT\KEYBOARD.H
C:\USERS\IVAN\DESKTOP\SHADOWMAPPINGNEW\SHADOWMAPPING\ENGINE\UTILITIES.H
C:\USERS\IVAN\DESKTOP\SHADOWMAPPINGNEW\SHADOWMAPPING\ENGINE\SCENE\INPUT\POINTER.H
C:\USERS\IVAN\DESKTOP\SHADOWMAPPINGNEW\SHADOWMAPPING\ENGINE\SCENE\CAMERAS\CAMERA BASE.H
C:\USERS\IVAN\DESKTOP\SHADOWMAPPINGNEW\SHADOWMAPPING\ENGINE\SCENE\TRANSFORMS\POSITION.H
C:\USERS\IVAN\DESKTOP\SHADOWMAPPINGNEW\SHADOWMAPPING\ENGINE\HELPERS.H
C:\USERS\IVAN\DESKTOP\SHADOWMAPPINGNEW\SHADOWMAPPING\ENGINE\SCENE\TRANSFORMS\DATA TRANSFER.H
C:\USERS\IVAN\DESKTOP\SHADOWMAPPINGNEW\SHADOWMAPPING\ENGINE\PIPELINE RESOURCES\BUFFERS\CONSTANT BUFFER.H
C:\USERS\IVAN\DESKTOP\SHADOWMAPPINGNEW\SHADOWMAPPING\ENGINE\PIPELINE RESOURCES\BUFFERS\BUFFER BASE.H
C:\USERS\IVAN\DESKTOP\SHADOWMAPPINGNEW\SHADOWMAPPING\ENGINE\PIPELINE STAGES\SHADERS\SHADER BASE.H
C:\USERS\IVAN\DESKTOP\SHADOWMAPPINGNEW\SHADOWMAPPING\ENGINE\SCENE\TRANSFORMS\VIEW TRANSFORM.H
C:\USERS\IVAN\DESKTOP\SHADOWMAPPINGNEW\SHADOWMAPPING\ENGINE\SCENE\TRANSFORMS\PROJECTION TRANSFORM.H
C:\USERS\IVAN\DESKTOP\SHADOWMAPPINGNEW\SHADOWMAPPING\ENGINE\CORE\COMMON\STEPTIMER.H
^C:\USERS\IVAN\DESKTOP\SHADOWMAPPINGNEW\SHADOWMAPPING\ENGINE\THIRD PARTY\DIRECTX TOOL KIT\DDS\DDSTEXTURELOADER.CPP
C:\USERS\IVAN\DESKTOP\SHADOWMAPPINGNEW\SHADOWMAPPING\ENGINE\RELEASE\ENGINE.PCH
C:\PROGRAM FILES (X86)\MICROSOFT VISUAL STUDIO 12.0\VC\BIN\CL.EXE.CONFIG
C:\PROGRAM FILES (X86)\MICROSOFT SDKS\WINDOWS\V8.1\EXTENSIONSDKS\MICROSOFT.VCLIBS\12.0\REFERENCES\COMMONCONFIGURATION\NEUTRAL\PLATFORM.WINMD
C:\PROGRAM FILES (X86)\WINDOWS KITS\8.1\REFERENCES\COMMONCONFIGURATION\NEUTRAL\WINDOWS.WINMD
C:\USERS\IVAN\DESKTOP\SHADOWMAPPINGNEW\SHADOWMAPPING\ENGINE\RELEASE\PCH.OBJ
C:\USERS\IVAN\DESKTOP\SHADOWMAPPINGNEW\SHADOWMAPPING\ENGINE\THIRD PARTY\DIRECTX TOOL KIT\DDS\DDSTEXTURELOADER.H
C:\USERS\IVAN\DESKTOP\SHADOWMAPPINGNEW\SHADOWMAPPING\ENGINE\THIRD PARTY\DIRECTX TOOL KIT\DDS\DDS.H
C:\USERS\IVAN\DESKTOP\SHADOWMAPPINGNEW\SHADOWMAPPING\ENGINE\CORE\COMMON\DIRECTXHELPER.H
C:\USERS\IVAN\DESKTOP\SHADOWMAPPINGNEW\SHADOWMAPPING\ENGINE\THIRD PARTY\DIRECTX TOOL KIT\DDS\PLATFORMHELPERS.H
